"id","gender","musicYears","age","ageDecade","musicYearsCubeRoot","group"
"P1","F",12,26.7663672430571,2.67663672430571,2.28942848510666,"young"
"P2","F",3.5,19.0628415300546,1.90628415300546,1.51829448593783,"young"
"P4","M",0,19.6530054644809,1.96530054644809,0,"young"
"P5","F",7,20.9741747136762,2.09741747136762,1.91293118277239,"young"
"P6","F",0,19.8469945355191,1.98469945355191,0,"young"
"P7","F",2,19.4098360655738,1.94098360655738,1.25992104989487,"young"
"P8","M",2,18.9412830301669,1.89412830301669,1.25992104989487,"young"
"P9","M",0,66.7467549966315,6.67467549966315,0,"elderly"
"P10","F",10,19.0874316939891,1.90874316939891,2.15443469003188,"young"
"P11","M",0,64.0983606557377,6.40983606557377,0,"elderly"
"P15","F",0.5,67.1967213114754,6.71967213114754,0.7937005259841,"elderly"
"P24","F",1,62.9903510741822,6.29903510741822,1,"elderly"
"P25","F",4,67.958904109589,6.7958904109589,1.5874010519682,"elderly"
"P28","F",3.5,69.1939890710382,6.91939890710382,1.51829448593783,"elderly"
"P31","M",2,19.844262295082,1.9844262295082,1.25992104989487,"young"
"P34","F",0,61.0765027322404,6.10765027322404,0,"elderly"
"P37","M",2,20.5710382513661,2.05710382513661,1.25992104989487,"young"
"P41","F",2,18.8438356164384,1.88438356164384,1.25992104989487,"young"
"P42","F",2.5,61.5972602739726,6.15972602739726,1.35720880829745,"elderly"
"P43","F",18,56.4208922823565,5.64208922823565,2.6207413942089,"middle"
"P44","F",6,52.5575117898046,5.25575117898046,1.81712059283214,"middle"
"P47","F",35,46.0493150684932,4.60493150684932,3.27106631018859,"middle"
"P49","F",27,35.2712328767123,3.52712328767123,3,"young"
"P50","F",5,47.3287671232877,4.73287671232877,1.7099759466767,"middle"
"P51","F",0,61.3342465753425,6.13342465753425,0,"elderly"
"P52","F",2,32.6341118347182,3.26341118347182,1.25992104989487,"young"
"P53","F",6,47.4958904109589,4.74958904109589,1.81712059283214,"middle"
"P54","F",40,65.2904109589041,6.52904109589041,3.41995189335339,"elderly"
"P55","F",0,57.2547945205479,5.72547945205479,0,"middle"
"P56","F",5,59.2986301369863,5.92986301369863,1.7099759466767,"middle"
"P58","F",0,47.8958904109589,4.78958904109589,0,"middle"
"P61","F",21,27.2383561643836,2.72383561643836,2.75892417638112,"young"
"P63","F",25,43.6657534246575,4.36657534246575,2.92401773821287,"middle"
"P64","M",0,32.6672280859346,3.26672280859346,0,"young"
"P65","F",4,44.9841979190059,4.49841979190059,1.5874010519682,"middle"
"P66","F",0,52.3011527808968,5.23011527808968,0,"middle"
"P67","F",15,50.7123287671233,5.07123287671233,2.46621207433047,"middle"
"P68","F",2,39.7260273972603,3.97260273972603,1.25992104989487,"young"
"P69","M",6,70.0191780821918,7.00191780821918,1.81712059283214,"elderly"
"P70","F",0,39.7260273972603,3.97260273972603,0,"young"
"P71","F",9,43.8,4.38,2.0800838230519,"middle"
"P72","M",0,50.5041095890411,5.05041095890411,0,"middle"
"P73","F",9.5,48.0767123287671,4.80767123287671,2.11791179212745,"middle"
"P77","F",0,22.227397260274,2.2227397260274,0,"young"
"P78","M",0,43.3205479452055,4.33205479452055,0,"middle"
"P79","F",3,61.8301369863014,6.18301369863014,1.44224957030741,"elderly"
"P81","F",5,62.1698630136986,6.21698630136986,1.7099759466767,"elderly"
"P83","F",8,47.6383561643836,4.76383561643836,2,"middle"
"P84","F",0,54.9315068493151,5.49315068493151,0,"middle"
"P85","F",15,59.7287671232877,5.97287671232877,2.46621207433047,"middle"
"P86","M",2,54.5095890410959,5.45095890410959,1.25992104989487,"middle"
"P87","F",7,61.0465753424658,6.10465753424658,1.91293118277239,"elderly"
"P89","F",4,60.2520547945205,6.02520547945205,1.5874010519682,"elderly"
"P91","F",12,26.3150684931507,2.63150684931507,2.28942848510666,"young"
"P93","F",20,64.1205479452055,6.41205479452055,2.71441761659491,"elderly"
"P94","F",0,52.5231304738379,5.25231304738379,0,"middle"
"P97","F",40,63.9890410958904,6.39890410958904,3.41995189335339,"elderly"
"P99","M",59,69.5260273972603,6.95260273972603,3.89299641587326,"elderly"
"P102","M",0,60.9879257429448,6.09879257429448,0,"elderly"
"P103","F",3,58.4109589041096,5.84109589041096,1.44224957030741,"middle"
"P104","F",0,56.9554008533573,5.69554008533573,0,"middle"
"P106","F",0,40.6383561643836,4.06383561643836,0,"middle"
"P107","M",0,48.3534246575342,4.83534246575342,0,"middle"
"P110","F",0,41.6465753424658,4.16465753424658,0,"middle"
"P111","F",49,65.1205479452055,6.51205479452055,3.65930571002297,"elderly"
"P112","F",13,26.172602739726,2.6172602739726,2.35133468772076,"young"
"P114","F",30,66.2109589041096,6.62109589041096,3.10723250595386,"elderly"
"P116","M",24,47.786301369863,4.7786301369863,2.88449914061482,"middle"
"P117","M",15,61.5013698630137,6.15013698630137,2.46621207433047,"elderly"
"P119","F",6,57.6657534246575,5.76657534246575,1.81712059283214,"middle"
"P120","M",0,73.1397260273973,7.31397260273973,0,"elderly"
"P121","F",0,70.3041095890411,7.03041095890411,0,"elderly"
"P123","M",0,46.8164383561644,4.68164383561644,0,"middle"
"P127","M",4,35.013698630137,3.5013698630137,1.5874010519682,"young"
"P129","F",0,24.7260273972603,2.47260273972603,0,"young"
"P130","F",4,48.9287222097462,4.89287222097462,1.5874010519682,"middle"
"P131","F",7,21.241095890411,2.1241095890411,1.91293118277239,"young"
"P133","F",40,46.8027397260274,4.68027397260274,3.41995189335339,"middle"
"P134","F",12,21.5095890410959,2.15095890410959,2.28942848510666,"young"
"P135","F",4,21.4931506849315,2.14931506849315,1.5874010519682,"young"
"P136","F",1,27.7534246575342,2.77534246575342,1,"young"
"P142","F",5,59.572602739726,5.9572602739726,1.7099759466767,"middle"
"P143","M",10,59.827397260274,5.9827397260274,2.15443469003188,"middle"
"P144","M",0,22.1616438356164,2.21616438356164,0,"young"
"P145","F",1,22.3479452054795,2.23479452054795,1,"young"
"P147","F",5,73.6018339696085,7.36018339696085,1.7099759466767,"elderly"
"P148","F",5,20.4246575342466,2.04246575342466,1.7099759466767,"young"
"P149","F",0,19.6575342465753,1.96575342465753,0,"young"
"P150","F",25,60.1123287671233,6.01123287671233,2.92401773821287,"elderly"
"P151","F",0.6,19.3397260273973,1.93397260273973,0.843432665301749,"young"
"P152","F",3,18.758904109589,1.8758904109589,1.44224957030741,"young"
"P153","F",0,61.3287671232877,6.13287671232877,0,"elderly"
"P154","F",56,65.2027397260274,6.52027397260274,3.82586236554478,"elderly"
"P156","F",0,62.027397260274,6.2027397260274,0,"elderly"
"P159","F",0,20.0602739726027,2.00602739726027,0,"young"
"P160","F",0,67.5972602739726,6.75972602739726,0,"elderly"
"P163","F",5,24.3835616438356,2.43835616438356,1.7099759466767,"young"
"P164","F",4,60.1698630136986,6.01698630136986,1.5874010519682,"elderly"
"P167","F",11,53.1123287671233,5.31123287671233,2.22398009056932,"middle"
"P168","F",0,60.8054794520548,6.08054794520548,0,"elderly"
"P169","F",0,63.0657534246575,6.30657534246575,0,"elderly"
"P170","F",18,65.3506849315068,6.53506849315068,2.6207413942089,"elderly"
