Variable,Description
id,Participant identifier
montage,"Electrode montage. HF-C7 (FzC7), HF-LERL (FzLinkedEarlobes), HF-LMST (FzLinkedMastoids), HF-LTPR (FzLinkedTiptrodes)"
modAmp,Modulation amplitude (or depth)
lat_alg1,Group delay latency estimate in milliseconds
MSE_alg1,Mean squared error of the group delay fit
meanSNR,Mean SNR of the components used for the group delay fit
nComp,Number of components used for the group delay fit
modAmpPretty,Modulation amplitude (pretty version for labels)
