Variable,Description
id,Participant identifier
montage,"Electrode montage. HF-C7 (FzC7), HF-LERL (FzLinkedEarlobes), HF-LMST (FzLinkedMastoids), HF-LTPR (FzLinkedTiptrodes)"
meanSNR,Mean (across modulation frequencies and modulation depths) signal to noise ratio at the carrier frequency
seSNR,Standard error of the mean (across modulation frequencies and modulation depths) signal to noise ratio at the carrier frequency
meanSigLev,Mean (across modulation frequencies and modulation depths) signal level at the carrier frequency
seSigLev,Standard error of the mean (across modulation frequencies and modulation depths) signal level at the carrier frequency
meanSigLevSL,Mean (across modulation frequencies and modulation depths) signal level at the lower side band
meanSigLevSH,Mean (across modulation frequencies and modulation depths) signal level at the higher side band
meanSNRSL,Mean (across modulation frequencies and modulation depths) signal to noise ratio at the lower side band
seSNRSL,Standard error of the mean (across modulation frequencies and modulation depths) signal to noise ratio at the lower side band
meanSNRSH,Mean (across modulation frequencies and modulation depths) signal to noise ratio at the higher side band
seSNRSH,Standard error of the mean (across modulation frequencies and modulation depths) signal to noise ratio at the higher side band
